{"meta":{"pagination":{"count":16,"pages":2,"page":2,"per_page":10}},"links":null,"data":[{"type":"locations","id":"48727","attributes":{"name":"West Hollywood (Stripe)","timezone":"US/Pacific","address_line1":"empty address","address_line2":"","address_line3":"","address_sorting_code":null,"city":"","state_province":"","postal_code":"20006","phone_number":"+1234567890","description":null,"email_address":"west.hollywood@marianatek.com","user_has_turf_access":false,"latitude":"34.0900090","longitude":"-118.3617440","primary_language":"en-US","listed":true,"currency_code":"USD","daily_pending_reservation_limit":"","enable_geo_check_in":false,"class_pass_status":"disabled","is_newsletter_subscription_pre_checked":false,"is_waitlist_position_public":false,"is_waitlist_count_public":false,"enable_change_spots":false,"enable_third_party_change_spots":false,"enable_royalty_fee_platform":false,"geo_check_in_distance":null,"gate_geo_check_in_by_distance":"inherit_from_tenant","australian_business_number":null,"vat_number":null,"formatted_address":["empty address","20006","United States"],"use_tax_inclusive_pricing":"inherit_from_tenant"},"relationships":{"region":{"data":{"type":"regions","id":"48545"}},"classrooms":{"data":[{"type":"classrooms","id":"6202"},{"type":"classrooms","id":"6201"}]},"partner":{"data":{"type":"partners","id":"41372"}},"default_product_collection":{"data":{"type":"product_collections","id":"39345"}},"site":{"data":{"type":"sites","id":"50886"}},"quick_sale_product_collection":{"data":{"type":"product_collections","id":"39349"}},"addons_product_collection":{"data":{"type":"product_collections","id":"39344"}}}},{"type":"locations","id":"48728","attributes":{"name":"Mission (Authorize Sandbox)","timezone":"US/Pacific","address_line1":"empty address","address_line2":"","address_line3":"","address_sorting_code":null,"city":"","state_province":"","postal_code":"20006","phone_number":"+1234567890","description":null,"email_address":"mission@marianatek.com","user_has_turf_access":false,"latitude":"37.7598650","longitude":"-122.4147980","primary_language":"en-US","listed":true,"currency_code":"USD","daily_pending_reservation_limit":"","enable_geo_check_in":false,"class_pass_status":"disabled","is_newsletter_subscription_pre_checked":false,"is_waitlist_position_public":false,"is_waitlist_count_public":false,"enable_change_spots":false,"enable_third_party_change_spots":false,"enable_royalty_fee_platform":false,"geo_check_in_distance":null,"gate_geo_check_in_by_distance":"inherit_from_tenant","australian_business_number":null,"vat_number":null,"formatted_address":["empty address","20006","United States"],"use_tax_inclusive_pricing":"inherit_from_tenant"},"relationships":{"region":{"data":{"type":"regions","id":"48546"}},"classrooms":{"data":[{"type":"classrooms","id":"6204"},{"type":"classrooms","id":"6203"}]},"partner":{"data":{"type":"partners","id":"41373"}},"default_product_collection":{"data":{"type":"product_collections","id":"39345"}},"site":{"data":{"type":"sites","id":"50886"}},"quick_sale_product_collection":{"data":{"type":"product_collections","id":"39349"}},"addons_product_collection":{"data":{"type":"product_collections","id":"39344"}}}},{"type":"locations","id":"48729","attributes":{"name":"Pacific Heights","timezone":"US/Pacific","address_line1":"empty address","address_line2":"","address_line3":"","address_sorting_code":null,"city":"","state_province":"","postal_code":"20006","phone_number":"+1234567890","description":null,"email_address":"pacific.heights@marianatek.com","user_has_turf_access":false,"latitude":"37.7925150","longitude":"-122.4382310","primary_language":"en-US","listed":true,"currency_code":"USD","daily_pending_reservation_limit":"","enable_geo_check_in":false,"class_pass_status":"disabled","is_newsletter_subscription_pre_checked":false,"is_waitlist_position_public":false,"is_waitlist_count_public":false,"enable_change_spots":false,"enable_third_party_change_spots":false,"enable_royalty_fee_platform":false,"geo_check_in_distance":null,"gate_geo_check_in_by_distance":"inherit_from_tenant","australian_business_number":null,"vat_number":null,"formatted_address":["empty address","20006","United States"],"use_tax_inclusive_pricing":"inherit_from_tenant"},"relationships":{"region":{"data":{"type":"regions","id":"48546"}},"classrooms":{"data":[{"type":"classrooms","id":"6206"},{"type":"classrooms","id":"6205"}]},"partner":{"data":{"type":"partners","id":"41374"}},"default_product_collection":{"data":{"type":"product_collections","id":"39345"}},"site":{"data":{"type":"sites","id":"50886"}},"quick_sale_product_collection":{"data":{"type":"product_collections","id":"39349"}},"addons_product_collection":{"data":{"type":"product_collections","id":"39344"}}}},{"type":"locations","id":"48730","attributes":{"name":"Dupont Circle","timezone":"US/Eastern","address_line1":"empty address","address_line2":"","address_line3":"","address_sorting_code":null,"city":"","state_province":"","postal_code":"20006","phone_number":"+1234567890","description":null,"email_address":"dupont.circle@marianatek.com","user_has_turf_access":false,"latitude":"38.9096940","longitude":"-77.0433390","primary_language":"en-US","listed":true,"currency_code":"USD","daily_pending_reservation_limit":"","enable_geo_check_in":false,"class_pass_status":"disabled","is_newsletter_subscription_pre_checked":false,"is_waitlist_position_public":false,"is_waitlist_count_public":false,"enable_change_spots":false,"enable_third_party_change_spots":false,"enable_royalty_fee_platform":false,"geo_check_in_distance":null,"gate_geo_check_in_by_distance":"inherit_from_tenant","australian_business_number":null,"vat_number":null,"formatted_address":["empty address","20006","United States"],"use_tax_inclusive_pricing":"inherit_from_tenant"},"relationships":{"region":{"data":{"type":"regions","id":"48547"}},"classrooms":{"data":[{"type":"classrooms","id":"6182"}]},"partner":{"data":{"type":"partners","id":"41375"}},"default_product_collection":{"data":{"type":"product_collections","id":"39351"}},"site":{"data":{"type":"sites","id":"50886"}},"quick_sale_product_collection":{"data":{"type":"product_collections","id":"39349"}},"addons_product_collection":{"data":{"type":"product_collections","id":"39344"}}}},{"type":"locations","id":"48731","attributes":{"name":"Capitol Hill","timezone":"US/Eastern","address_line1":"empty address","address_line2":"","address_line3":"","address_sorting_code":null,"city":"","state_province":"","postal_code":"20006","phone_number":"+1234567890","description":null,"email_address":"capitol.hill@marianatek.com","user_has_turf_access":false,"latitude":"38.8860430","longitude":"-76.9995250","primary_language":"en-US","listed":true,"currency_code":"USD","daily_pending_reservation_limit":"","enable_geo_check_in":false,"class_pass_status":"disabled","is_newsletter_subscription_pre_checked":false,"is_waitlist_position_public":false,"is_waitlist_count_public":false,"enable_change_spots":false,"enable_third_party_change_spots":false,"enable_royalty_fee_platform":false,"geo_check_in_distance":null,"gate_geo_check_in_by_distance":"inherit_from_tenant","australian_business_number":null,"vat_number":null,"formatted_address":["empty address","20006","United States"],"use_tax_inclusive_pricing":"inherit_from_tenant"},"relationships":{"region":{"data":{"type":"regions","id":"48547"}},"classrooms":{"data":[{"type":"classrooms","id":"6208"},{"type":"classrooms","id":"6207"}]},"partner":{"data":{"type":"partners","id":"41376"}},"default_product_collection":{"data":{"type":"product_collections","id":"39351"}},"site":{"data":{"type":"sites","id":"50886"}},"quick_sale_product_collection":{"data":{"type":"product_collections","id":"39349"}},"addons_product_collection":{"data":{"type":"product_collections","id":"39344"}}}},{"type":"locations","id":"48732","attributes":{"name":"Montreal","timezone":"US/Eastern","address_line1":"empty address","address_line2":"","address_line3":"","address_sorting_code":null,"city":"","state_province":"","postal_code":"20006","phone_number":"+11234567890","description":null,"email_address":"montreal@marianatek.com","user_has_turf_access":false,"latitude":"45.5017000","longitude":"-73.5673000","primary_language":"en-US","listed":true,"currency_code":"CAD","daily_pending_reservation_limit":"","enable_geo_check_in":false,"class_pass_status":"disabled","is_newsletter_subscription_pre_checked":false,"is_waitlist_position_public":false,"is_waitlist_count_public":false,"enable_change_spots":false,"enable_third_party_change_spots":false,"enable_royalty_fee_platform":false,"geo_check_in_distance":null,"gate_geo_check_in_by_distance":"inherit_from_tenant","australian_business_number":null,"vat_number":null,"formatted_address":["empty address","20006","United States"],"use_tax_inclusive_pricing":"inherit_from_tenant"},"relationships":{"region":{"data":{"type":"regions","id":"48548"}},"classrooms":{"data":[{"type":"classrooms","id":"6210"},{"type":"classrooms","id":"6209"}]},"partner":{"data":{"type":"partners","id":"41377"}},"default_product_collection":{"data":{"type":"product_collections","id":"39347"}},"site":{"data":{"type":"sites","id":"50886"}},"quick_sale_product_collection":{"data":{"type":"product_collections","id":"39349"}},"addons_product_collection":{"data":{"type":"product_collections","id":"39344"}}}}],"included":[{"type":"regions","id":"48545","attributes":{"name":"Los Angeles","listed":true},"relationships":{"site":{"data":{"type":"sites","id":"50886"}},"locations":{"data":[{"type":"locations","id":"48727"},{"type":"locations","id":"48726"}]}}},{"type":"regions","id":"48546","attributes":{"name":"San Francisco","listed":true},"relationships":{"site":{"data":{"type":"sites","id":"50886"}},"locations":{"data":[{"type":"locations","id":"48729"},{"type":"locations","id":"48728"}]}}},{"type":"regions","id":"48547","attributes":{"name":"Washington, D.C.","listed":true},"relationships":{"site":{"data":{"type":"sites","id":"50886"}},"locations":{"data":[{"type":"locations","id":"48731"},{"type":"locations","id":"48730"}]}}},{"type":"regions","id":"48548","attributes":{"name":"Quebec","listed":true},"relationships":{"site":{"data":{"type":"sites","id":"50886"}},"locations":{"data":[{"type":"locations","id":"48732"}]}}}]}
