{"meta":{"pagination":{"count":16,"pages":2,"page":1,"per_page":10}},"links":null,"data":[{"type":"locations","id":"48717","attributes":{"name":"Chelsea","timezone":"US/Eastern","address_line1":"empty address","address_line2":"","address_line3":"","address_sorting_code":null,"city":"","state_province":"","postal_code":"20006","phone_number":"+1234567890","description":null,"email_address":"chelsea@marianatek.com","user_has_turf_access":false,"latitude":"40.7478867","longitude":"-74.0040550","primary_language":"en-US","listed":true,"currency_code":"USD","daily_pending_reservation_limit":"","enable_geo_check_in":false,"class_pass_status":"disabled","is_newsletter_subscription_pre_checked":false,"is_waitlist_position_public":false,"is_waitlist_count_public":false,"enable_change_spots":false,"enable_third_party_change_spots":false,"enable_royalty_fee_platform":false,"geo_check_in_distance":null,"gate_geo_check_in_by_distance":"inherit_from_tenant","australian_business_number":null,"vat_number":null,"formatted_address":["empty address","20006","United States"],"use_tax_inclusive_pricing":"inherit_from_tenant"},"relationships":{"region":{"data":{"type":"regions","id":"48541"}},"classrooms":{"data":[{"type":"classrooms","id":"6183"}]},"partner":{"data":{"type":"partners","id":"41362"}},"default_product_collection":{"data":{"type":"product_collections","id":"39348"}},"site":{"data":{"type":"sites","id":"50886"}},"quick_sale_product_collection":{"data":{"type":"product_collections","id":"39349"}},"addons_product_collection":{"data":{"type":"product_collections","id":"39344"}}}},{"type":"locations","id":"48718","attributes":{"name":"Upper East Side","timezone":"US/Eastern","address_line1":"empty address","address_line2":"","address_line3":"","address_sorting_code":null,"city":"","state_province":"","postal_code":"20006","phone_number":"+1234567890","description":null,"email_address":"upper.east.side@marianatek.com","user_has_turf_access":false,"latitude":"40.7735650","longitude":"-73.9565550","primary_language":"en-US","listed":true,"currency_code":"USD","daily_pending_reservation_limit":"","enable_geo_check_in":false,"class_pass_status":"disabled","is_newsletter_subscription_pre_checked":false,"is_waitlist_position_public":false,"is_waitlist_count_public":false,"enable_change_spots":false,"enable_third_party_change_spots":false,"enable_royalty_fee_platform":false,"geo_check_in_distance":null,"gate_geo_check_in_by_distance":"inherit_from_tenant","australian_business_number":null,"vat_number":null,"formatted_address":["empty address","20006","United States"],"use_tax_inclusive_pricing":"inherit_from_tenant"},"relationships":{"region":{"data":{"type":"regions","id":"48541"}},"classrooms":{"data":[{"type":"classrooms","id":"6186"},{"type":"classrooms","id":"6185"},{"type":"classrooms","id":"6211"}]},"partner":{"data":{"type":"partners","id":"41363"}},"default_product_collection":{"data":{"type":"product_collections","id":"39348"}},"site":{"data":{"type":"sites","id":"50886"}},"quick_sale_product_collection":{"data":{"type":"product_collections","id":"39349"}},"addons_product_collection":{"data":{"type":"product_collections","id":"39344"}}}},{"type":"locations","id":"48719","attributes":{"name":"Tribeca (With Dings)","timezone":"US/Eastern","address_line1":"empty address","address_line2":"","address_line3":"","address_sorting_code":null,"city":"","state_province":"","postal_code":"20006","phone_number":"+1234567890","description":null,"email_address":"tribeca@marianatek.com","user_has_turf_access":false,"latitude":"40.7162690","longitude":"-74.0086320","primary_language":"en-US","listed":true,"currency_code":"USD","daily_pending_reservation_limit":"","enable_geo_check_in":false,"class_pass_status":"disabled","is_newsletter_subscription_pre_checked":false,"is_waitlist_position_public":false,"is_waitlist_count_public":false,"enable_change_spots":false,"enable_third_party_change_spots":false,"enable_royalty_fee_platform":false,"geo_check_in_distance":null,"gate_geo_check_in_by_distance":"inherit_from_tenant","australian_business_number":null,"vat_number":null,"formatted_address":["empty address","20006","United States"],"use_tax_inclusive_pricing":"inherit_from_tenant"},"relationships":{"region":{"data":{"type":"regions","id":"48541"}},"classrooms":{"data":[{"type":"classrooms","id":"6188"},{"type":"classrooms","id":"6187"}]},"partner":{"data":{"type":"partners","id":"41364"}},"default_product_collection":{"data":{"type":"product_collections","id":"39348"}},"site":{"data":{"type":"sites","id":"50886"}},"quick_sale_product_collection":{"data":{"type":"product_collections","id":"39349"}},"addons_product_collection":{"data":{"type":"product_collections","id":"39344"}}}},{"type":"locations","id":"48720","attributes":{"name":"East Hampton","timezone":"US/Eastern","address_line1":"empty address","address_line2":"","address_line3":"","address_sorting_code":null,"city":"","state_province":"","postal_code":"20006","phone_number":"+1234567890","description":null,"email_address":"east.hampton@marianatek.com","user_has_turf_access":false,"latitude":"40.9634340","longitude":"-72.1848010","primary_language":"en-US","listed":true,"currency_code":"USD","daily_pending_reservation_limit":"","enable_geo_check_in":false,"class_pass_status":"disabled","is_newsletter_subscription_pre_checked":false,"is_waitlist_position_public":false,"is_waitlist_count_public":false,"enable_change_spots":false,"enable_third_party_change_spots":false,"enable_royalty_fee_platform":false,"geo_check_in_distance":null,"gate_geo_check_in_by_distance":"inherit_from_tenant","australian_business_number":null,"vat_number":null,"formatted_address":["empty address","20006","United States"],"use_tax_inclusive_pricing":"inherit_from_tenant"},"relationships":{"region":{"data":{"type":"regions","id":"48541"}},"classrooms":{"data":[{"type":"classrooms","id":"6190"},{"type":"classrooms","id":"6189"}]},"partner":{"data":{"type":"partners","id":"41365"}},"default_product_collection":{"data":{"type":"product_collections","id":"39348"}},"site":{"data":{"type":"sites","id":"50886"}},"quick_sale_product_collection":{"data":{"type":"product_collections","id":"39349"}},"addons_product_collection":{"data":{"type":"product_collections","id":"39344"}}}},{"type":"locations","id":"48721","attributes":{"name":"Williamsburg","timezone":"US/Eastern","address_line1":"empty address","address_line2":"","address_line3":"","address_sorting_code":null,"city":"","state_province":"","postal_code":"20006","phone_number":"+1234567890","description":null,"email_address":"williamsburg@marianatek.com","user_has_turf_access":false,"latitude":"40.7081160","longitude":"-73.9570700","primary_language":"en-US","listed":true,"currency_code":"USD","daily_pending_reservation_limit":"","enable_geo_check_in":false,"class_pass_status":"disabled","is_newsletter_subscription_pre_checked":false,"is_waitlist_position_public":false,"is_waitlist_count_public":false,"enable_change_spots":false,"enable_third_party_change_spots":false,"enable_royalty_fee_platform":false,"geo_check_in_distance":null,"gate_geo_check_in_by_distance":"inherit_from_tenant","australian_business_number":null,"vat_number":null,"formatted_address":["empty address","20006","United States"],"use_tax_inclusive_pricing":"inherit_from_tenant"},"relationships":{"region":{"data":{"type":"regions","id":"48541"}},"classrooms":{"data":[{"type":"classrooms","id":"6192"},{"type":"classrooms","id":"6191"}]},"partner":{"data":{"type":"partners","id":"41366"}},"default_product_collection":{"data":{"type":"product_collections","id":"39348"}},"site":{"data":{"type":"sites","id":"50886"}},"quick_sale_product_collection":{"data":{"type":"product_collections","id":"39349"}},"addons_product_collection":{"data":{"type":"product_collections","id":"39344"}}}},{"type":"locations","id":"48722","attributes":{"name":"Midtown","timezone":"US/Central","address_line1":"empty address","address_line2":"","address_line3":"","address_sorting_code":null,"city":"","state_province":"","postal_code":"20006","phone_number":"+1234567890","description":null,"email_address":"midtown@marianatek.com","user_has_turf_access":false,"latitude":"38.6291670","longitude":"-90.2268110","primary_language":"en-US","listed":true,"currency_code":"USD","daily_pending_reservation_limit":"","enable_geo_check_in":false,"class_pass_status":"disabled","is_newsletter_subscription_pre_checked":false,"is_waitlist_position_public":false,"is_waitlist_count_public":false,"enable_change_spots":false,"enable_third_party_change_spots":false,"enable_royalty_fee_platform":false,"geo_check_in_distance":null,"gate_geo_check_in_by_distance":"inherit_from_tenant","australian_business_number":null,"vat_number":null,"formatted_address":["empty address","20006","United States"],"use_tax_inclusive_pricing":"inherit_from_tenant"},"relationships":{"region":{"data":{"type":"regions","id":"48542"}},"classrooms":{"data":[{"type":"classrooms","id":"6194"},{"type":"classrooms","id":"6193"}]},"partner":{"data":{"type":"partners","id":"41367"}},"default_product_collection":{"data":{"type":"product_collections","id":"39350"}},"site":{"data":{"type":"sites","id":"50886"}},"quick_sale_product_collection":{"data":{"type":"product_collections","id":"39349"}},"addons_product_collection":{"data":{"type":"product_collections","id":"39344"}}}},{"type":"locations","id":"48723","attributes":{"name":"Lincoln Park","timezone":"US/Central","address_line1":"empty address","address_line2":"","address_line3":"","address_sorting_code":null,"city":"","state_province":"","postal_code":"20006","phone_number":"+1234567890","description":null,"email_address":"lincoln.park@marianatek.com","user_has_turf_access":false,"latitude":"41.9214380","longitude":"-87.6513040","primary_language":"en-US","listed":true,"currency_code":"USD","daily_pending_reservation_limit":"","enable_geo_check_in":false,"class_pass_status":"disabled","is_newsletter_subscription_pre_checked":false,"is_waitlist_position_public":false,"is_waitlist_count_public":false,"enable_change_spots":false,"enable_third_party_change_spots":false,"enable_royalty_fee_platform":false,"geo_check_in_distance":null,"gate_geo_check_in_by_distance":"inherit_from_tenant","australian_business_number":null,"vat_number":null,"formatted_address":["empty address","20006","United States"],"use_tax_inclusive_pricing":"inherit_from_tenant"},"relationships":{"region":{"data":{"type":"regions","id":"48543"}},"classrooms":{"data":[{"type":"classrooms","id":"6196"},{"type":"classrooms","id":"6195"}]},"partner":{"data":{"type":"partners","id":"41368"}},"default_product_collection":{"data":{"type":"product_collections","id":"39346"}},"site":{"data":{"type":"sites","id":"50886"}},"quick_sale_product_collection":{"data":{"type":"product_collections","id":"39349"}},"addons_product_collection":{"data":{"type":"product_collections","id":"39344"}}}},{"type":"locations","id":"48724","attributes":{"name":"Point Loma","timezone":"US/Pacific","address_line1":"empty address","address_line2":"","address_line3":"","address_sorting_code":null,"city":"","state_province":"","postal_code":"20006","phone_number":"+1234567890","description":null,"email_address":"point.loma@marianatek.com","user_has_turf_access":false,"latitude":"32.7000300","longitude":"-117.2466840","primary_language":"en-US","listed":true,"currency_code":"USD","daily_pending_reservation_limit":"","enable_geo_check_in":false,"class_pass_status":"disabled","is_newsletter_subscription_pre_checked":false,"is_waitlist_position_public":false,"is_waitlist_count_public":false,"enable_change_spots":false,"enable_third_party_change_spots":false,"enable_royalty_fee_platform":false,"geo_check_in_distance":null,"gate_geo_check_in_by_distance":"inherit_from_tenant","australian_business_number":null,"vat_number":null,"formatted_address":["empty address","20006","United States"],"use_tax_inclusive_pricing":"inherit_from_tenant"},"relationships":{"region":{"data":{"type":"regions","id":"48544"}},"classrooms":{"data":[{"type":"classrooms","id":"6184"}]},"partner":{"data":{"type":"partners","id":"41369"}},"default_product_collection":{"data":{"type":"product_collections","id":"39345"}},"site":{"data":{"type":"sites","id":"50886"}},"quick_sale_product_collection":{"data":{"type":"product_collections","id":"39349"}},"addons_product_collection":{"data":{"type":"product_collections","id":"39344"}}}},{"type":"locations","id":"48725","attributes":{"name":"Solana Beach","timezone":"US/Pacific","address_line1":"empty address","address_line2":"","address_line3":"","address_sorting_code":null,"city":"","state_province":"","postal_code":"20006","phone_number":"+1234567890","description":null,"email_address":"solana.beach@marianatek.com","user_has_turf_access":false,"latitude":"32.9911550","longitude":"-117.2711480","primary_language":"en-US","listed":true,"currency_code":"USD","daily_pending_reservation_limit":"","enable_geo_check_in":false,"class_pass_status":"disabled","is_newsletter_subscription_pre_checked":false,"is_waitlist_position_public":false,"is_waitlist_count_public":false,"enable_change_spots":false,"enable_third_party_change_spots":false,"enable_royalty_fee_platform":false,"geo_check_in_distance":null,"gate_geo_check_in_by_distance":"inherit_from_tenant","australian_business_number":null,"vat_number":null,"formatted_address":["empty address","20006","United States"],"use_tax_inclusive_pricing":"inherit_from_tenant"},"relationships":{"region":{"data":{"type":"regions","id":"48544"}},"classrooms":{"data":[{"type":"classrooms","id":"6198"},{"type":"classrooms","id":"6197"}]},"partner":{"data":{"type":"partners","id":"41370"}},"default_product_collection":{"data":{"type":"product_collections","id":"39345"}},"site":{"data":{"type":"sites","id":"50886"}},"quick_sale_product_collection":{"data":{"type":"product_collections","id":"39349"}},"addons_product_collection":{"data":{"type":"product_collections","id":"39344"}}}},{"type":"locations","id":"48726","attributes":{"name":"Santa Monica","timezone":"US/Pacific","address_line1":"empty address","address_line2":"","address_line3":"","address_sorting_code":null,"city":"","state_province":"","postal_code":"20006","phone_number":"+1234567890","description":null,"email_address":"santa.monica@marianatek.com","user_has_turf_access":false,"latitude":"34.0194540","longitude":"-118.4911910","primary_language":"en-US","listed":true,"currency_code":"USD","daily_pending_reservation_limit":"","enable_geo_check_in":false,"class_pass_status":"disabled","is_newsletter_subscription_pre_checked":false,"is_waitlist_position_public":false,"is_waitlist_count_public":false,"enable_change_spots":false,"enable_third_party_change_spots":false,"enable_royalty_fee_platform":false,"geo_check_in_distance":null,"gate_geo_check_in_by_distance":"inherit_from_tenant","australian_business_number":null,"vat_number":null,"formatted_address":["empty address","20006","United States"],"use_tax_inclusive_pricing":"inherit_from_tenant"},"relationships":{"region":{"data":{"type":"regions","id":"48545"}},"classrooms":{"data":[{"type":"classrooms","id":"6200"},{"type":"classrooms","id":"6199"}]},"partner":{"data":{"type":"partners","id":"41371"}},"default_product_collection":{"data":{"type":"product_collections","id":"39345"}},"site":{"data":{"type":"sites","id":"50886"}},"quick_sale_product_collection":{"data":{"type":"product_collections","id":"39349"}},"addons_product_collection":{"data":{"type":"product_collections","id":"39344"}}}}],"included":[{"type":"regions","id":"48541","attributes":{"name":"New York","listed":true},"relationships":{"site":{"data":{"type":"sites","id":"50886"}},"locations":{"data":[{"type":"locations","id":"48721"},{"type":"locations","id":"48718"},{"type":"locations","id":"48720"},{"type":"locations","id":"48719"},{"type":"locations","id":"48717"}]}}},{"type":"regions","id":"48542","attributes":{"name":"St. Louis","listed":true},"relationships":{"site":{"data":{"type":"sites","id":"50886"}},"locations":{"data":[{"type":"locations","id":"48722"}]}}},{"type":"regions","id":"48543","attributes":{"name":"Chicago","listed":true},"relationships":{"site":{"data":{"type":"sites","id":"50886"}},"locations":{"data":[{"type":"locations","id":"48723"}]}}},{"type":"regions","id":"48544","attributes":{"name":"San Diego","listed":true},"relationships":{"site":{"data":{"type":"sites","id":"50886"}},"locations":{"data":[{"type":"locations","id":"48725"},{"type":"locations","id":"48724"}]}}},{"type":"regions","id":"48545","attributes":{"name":"Los Angeles","listed":true},"relationships":{"site":{"data":{"type":"sites","id":"50886"}},"locations":{"data":[{"type":"locations","id":"48727"},{"type":"locations","id":"48726"}]}}}]}
